[
    "node_modules/datatables.net/js/jquery.dataTables.js",
    "node_modules/datatables.net-bs5/js/dataTables.bootstrap5.js",
    "node_modules/datatables.net-responsive/js/dataTables.responsive.min.js",
    "node_modules/datatables.net-responsive-bs5/js/responsive.bootstrap5.min.js",
    "node_modules/datatables.net-scroller/js/dataTables.scroller.min.js",
    "node_modules/datatables.net-scroller-bs5/js/scroller.bootstrap5.min.js",
    "node_modules/datatables.net-select/js/dataTables.select.min.js",
    "node_modules/datatables.net-buttons/js/dataTables.buttons.min.js",
    "node_modules/datatables.net-buttons-bs5/js/buttons.bootstrap5.min.js",
    "node_modules/datatables.net-buttons/js/buttons.colVis.js",
    "node_modules/datatables.net-buttons/js/buttons.flash.js",
    "node_modules/datatables.net-buttons/js/buttons.html5.js",
    "node_modules/datatables.net-buttons/js/buttons.print.js",
    "public/vendor/datatables/buttons.server-side.js",
    "resources/assets/extended/js/vendors/plugins/datatables.init.js"
]
